﻿{
    "Cities": [
        {
            "name": "Archerfield Aerodrome"
        },
        {
            "name": "Amberley Aerodrome"
        },
        {
            "name": "Alice Springs Aerodrome"
        },
        {
            "name": "Airport MO"
        },
        {
            "name": "Coolangatta Airport Aws"
        },
        {
            "name": "Cairns Airport"
        },
        {
            "name": "Charleville Airport"
        },
        {
            "name": "Gladstone"
        },
        {
            "name": "Longreach Airport"
        },
        {
            "name": "Mount Isa Amo"
        }
    ]
}
